Going Deeper with R
…
Tidy Data

Can We Plot Untidy Data?

german_speakers_numeric

# A tibble: 51 × 4
   state    number_of_german_spe…¹ number_of_german_spe…² number_of_german_spe…³
   <chr>                     <dbl>                  <dbl>                  <dbl>
 1 Alabama                     426                    395                    711
 2 Alaska                      331                    201                    131
 3 Arizona                     636                    858                    136
 4 Arkansas                     NA                    635                    557
 5 Califor…                    440                    318                    854
 6 Colorado                    251                    498                    768
 7 Connect…                    187                    334                    586
 8 Delaware                     NA                    998                    453
 9 Distric…                    799                    745                    180
10 Florida                     399                    924                    958
# ℹ 41 more rows
# ℹ abbreviated names: ¹​number_of_german_speakers_2017,
#   ²​number_of_german_speakers_2018, ³​number_of_german_speakers_2019

Can We Plot Untidy Data?

german_speakers_numeric

# A tibble: 51 × 4
   state    number_of_german_spe…¹ number_of_german_spe…² number_of_german_spe…³
   <chr>                     <dbl>                  <dbl>                  <dbl>
 1 Alabama                     426                    395                    711
 2 Alaska                      331                    201                    131
 3 Arizona                     636                    858                    136
 4 Arkansas                     NA                    635                    557
 5 Califor…                    440                    318                    854
 6 Colorado                    251                    498                    768
 7 Connect…                    187                    334                    586
 8 Delaware                     NA                    998                    453
 9 Distric…                    799                    745                    180
10 Florida                     399                    924                    958
# ℹ 41 more rows
# ℹ abbreviated names: ¹​number_of_german_speakers_2017,
#   ²​number_of_german_speakers_2018, ³​number_of_german_speakers_2019
…
Can We Plot Untidy Data?

german_speakers_tidy <-
  german_speakers_numeric |>
  pivot_longer(
    cols = -state,
    names_to = "year",
    values_to = "number"
  ) |>
  mutate(year = parse_number(year))

german_speakers_tidy

# A tibble: 153 × 3
   state     year number
   <chr>    <dbl>  <dbl>
 1 Alabama   2017    426
 2 Alabama   2018    395
 3 Alabama   2019    711
 4 Alaska    2017    331
 5 Alaska    2018    201
 6 Alaska    2019    131
 7 Arizona   2017    636
 8 Arizona   2018    858
 9 Arizona   2019    136
10 Arkansas  2017     NA
# ℹ 143 more rows
…
